{
	"info": {
		"_postman_id": "a6de5423-93d7-418e-8800-1933ea476868",
		"name": "Productos",
		"schema": "https://schema.getpostman.com/json/collection/v2.1.0/collection.json",
		"_exporter_id": "12056181",
		"_collection_link": "https://astdel.postman.co/workspace/Team-Workspace~bba8a38e-b0bf-409c-8357-639a91d8cbaf/collection/12056181-a6de5423-93d7-418e-8800-1933ea476868?action=share&source=collection_link&creator=12056181"
	},
	"item": [
		{
			"name": "Nueva Categoria - Productos",
			"request": {
				"method": "POST",
				"header": [],
				"body": {
					"mode": "raw",
					"raw": "{\r\n    \"nombre\": \"Portatiles\",\r\n    \"descripcion\": \"Computadoras\"\r\n}",
					"options": {
						"raw": {
							"language": "json"
						}
					}
				},
				"url": {
					"raw": "http://localhost:8090/category/",
					"protocol": "http",
					"host": [
						"localhost"
					],
					"port": "8090",
					"path": [
						"category",
						""
					]
				}
			},
			"response": []
		},
		{
			"name": "Consulta de Categoria por ID",
			"request": {
				"method": "GET",
				"header": [],
				"url": {
					"raw": "http://localhost:8090/category/1",
					"protocol": "http",
					"host": [
						"localhost"
					],
					"port": "8090",
					"path": [
						"category",
						"1"
					]
				}
			},
			"response": []
		},
		{
			"name": "Creación de Producto (Incluye FK Categoria)",
			"request": {
				"method": "POST",
				"header": [],
				"body": {
					"mode": "raw",
					"raw": "{\r\n    \"nombre\": \"Dell 250H\",\r\n    \"detalle\": \"Laptop i5\",\r\n    \"categoria\": 1,\r\n    \"stock\":\"5\",\r\n    \"precioUnitario\": 750.0\r\n}",
					"options": {
						"raw": {
							"language": "json"
						}
					}
				},
				"url": {
					"raw": "http://localhost:8090/producto/",
					"protocol": "http",
					"host": [
						"localhost"
					],
					"port": "8090",
					"path": [
						"producto",
						""
					]
				}
			},
			"response": []
		},
		{
			"name": "Consulta de Productos por ID",
			"request": {
				"method": "GET",
				"header": [],
				"url": {
					"raw": "http://localhost:8090/producto/1",
					"protocol": "http",
					"host": [
						"localhost"
					],
					"port": "8090",
					"path": [
						"producto",
						"1"
					]
				}
			},
			"response": []
		},
		{
			"name": "Consultar todos los productos",
			"request": {
				"method": "GET",
				"header": [],
				"url": {
					"raw": "http://localhost:8090/producto/all",
					"protocol": "http",
					"host": [
						"localhost"
					],
					"port": "8090",
					"path": [
						"producto",
						"all"
					]
				}
			},
			"response": []
		},
		{
			"name": "Actualizar Producto",
			"request": {
				"method": "PUT",
				"header": [],
				"body": {
					"mode": "raw",
					"raw": "{\r\n    \r\n    \"nombre\": \"Dell 250H\",\r\n    \"detalle\": \"Laptop i5\",\r\n    \"categoria\": 1,\r\n    \"stock\":\"10\",\r\n    \"precioUnitario\": 650.0\r\n}",
					"options": {
						"raw": {
							"language": "json"
						}
					}
				},
				"url": {
					"raw": "http://localhost:8090/producto/1",
					"protocol": "http",
					"host": [
						"localhost"
					],
					"port": "8090",
					"path": [
						"producto",
						"1"
					]
				}
			},
			"response": []
		}
	]
}